Meet the Parents,2000,107,Jay Roach,
The Parent Trap,1961,129,David Swift,
Alice In Wonderland,2009,109,Tim Burton,
Dark Shadows,2012,113,Tim Burton,
The Iron Lady,2011,105,Phylliday Lloyd,
The Help,2011,137,Tate Taylor,
From Russia With Love,1963,110,Terence Young,
The King's Speech,2011,118,Tom Hooper,
Charlie and the Chocolate Factory,2005,115,Tim Burton,
Easy Rider,1969,94,Dennis Hopper,
Walk the Line,2005,136,James Mangold,
Kaikohe Demolition,2004,52,Florian Habicht,
Brokeback Mountain,2005,134,Ang Lee,
Gladiator,2000,154,Ridley Scott,
The Long Voyage Home,1940,105,John Ford,
Happy-Go-Lucky,2008,118,Mike Leigh,
The Big Wedding,2013,89,Justin Zackham,
The Intouchables,2011,112,Olivier Nakache and Eric Toledano,
Searching for Sugar Man,2012,86,Malik Bendjelloul,
